Translating What I know in the tidyverse to polars:
…
Okay! What is cool for me so far about polars is that it is more getting used to the whole . thing.

Filter

One of the key things in data cleaning or working with data is working with observations that fit some criteria! In this case, lets just grab all the rows that have Adelie penguins and are above the mean body mass

R
Python

penguins |>
filter(species == "Adelie", body_mass_g > mean(body_mass_g, na.rm = TRUE))

# A tibble: 25 × 8
   species island    bill_length_mm bill_depth_mm flipper_length_mm body_mass_g
   <fct>   <fct>              <dbl>         <dbl>             <int>       <int>
 1 Adelie  Torgersen           39.2          19.6               195        4675
 2 Adelie  Torgersen           42            20.2               190        4250
 3 Adelie  Torgersen           34.6          21.1               198        4400
 4 Adelie  Torgersen           42.5          20.7               197        4500
 5 Adelie  Dream               39.8          19.1               184        4650
 6 Adelie  Dream               44.1          19.7               196        4400
 7 Adelie  Dream               39.6          18.8               190        4600
 8 Adelie  Biscoe              40.1          18.9               188        4300
 9 Adelie  Biscoe              41.3          21.1               195        4400
10 Adelie  Torgersen           41.8          19.4               198        4450
# ℹ 15 more rows
# ℹ 2 more variables: sex <fct>, year <int>
…
NameError: name 'mean' is not defined

This is my first attempt at it! It looks like the problem I am running into is that Python does not have a base python where a function like mean is defined.

After fiddling with it for some time it turns out the filter call is actually not correctly defined either! So before each filter option, you need to add a set of ()

R
Python

penguins |>
filter(species == "Adelie", body_mass_g > mean(body_mass_g, na.rm = TRUE))

# A tibble: 25 × 8
   species island    bill_length_mm bill_depth_mm flipper_length_mm body_mass_g
   <fct>   <fct>              <dbl>         <dbl>             <int>       <int>
 1 Adelie  Torgersen           39.2          19.6               195        4675
 2 Adelie  Torgersen           42            20.2               190        4250
 3 Adelie  Torgersen           34.6          21.1               198        4400
 4 Adelie  Torgersen           42.5          20.7               197        4500
 5 Adelie  Dream               39.8          19.1               184        4650
 6 Adelie  Dream               44.1          19.7               196        4400
 7 Adelie  Dream               39.6          18.8               190        4600
 8 Adelie  Biscoe              40.1          18.9               188        4300
 9 Adelie  Biscoe              41.3          21.1               195        4400
10 Adelie  Torgersen           41.8          19.4               198        4450
# ℹ 15 more rows
# ℹ 2 more variables: sex <fct>, year <int>
…
Nobody said this was going to be pretty or seamless! One other thing to get used to is that we are not going to be using something crazy like %in% for set membership! We use is_in

R
Python

penguins |>
filter(species %in% c("Gentoo", "Chinstrap"),
       bill_depth_mm > median(bill_depth_mm, na.rm = TRUE))

# A tibble: 52 × 8
   species   island bill_length_mm bill_depth_mm flipper_length_mm body_mass_g
   <fct>     <fct>           <dbl>         <dbl>             <int>       <int>
 1 Chinstrap Dream            46.5          17.9               192        3500
 2 Chinstrap Dream            50            19.5               196        3900
 3 Chinstrap Dream            51.3          19.2               193        3650
 4 Chinstrap Dream            45.4          18.7               188        3525
 5 Chinstrap Dream            52.7          19.8               197        3725
 6 Chinstrap Dream            45.2          17.8               198        3950
 7 Chinstrap Dream            46.1          18.2               178        3250
 8 Chinstrap Dream            51.3          18.2               197        3750
 9 Chinstrap Dream            46            18.9               195        4150
10 Chinstrap Dream            51.3          19.9               198        3700
# ℹ 42 more rows
# ℹ 2 more variables: sex <fct>, year <int>
…
One other thing that is weird (to me at least) is that you do not have to set the polars functions to remove NA’s by default! Which I suppose is nice? But feels a bit wrong and weird to me as an R user.

A common case that you run into is that maybe there are a whole bunch of things or one thing that you don’t want. In R you would just add the neccessary negations ahead of what you want. In polars it is a little different if you want to exclude values from a set.

::{.panel-tabset}

R

penguins |>
filter(!species %in% c("Gentoo", "Chinstrap"),
       island != "Dream")

# A tibble: 96 × 8
   species island    bill_length_mm bill_depth_mm flipper_length_mm body_mass_g
   <fct>   <fct>              <dbl>         <dbl>             <int>       <int>
 1 Adelie  Torgersen           39.1          18.7               181        3750
 2 Adelie  Torgersen           39.5          17.4               186        3800
 3 Adelie  Torgersen           40.3          18                 195        3250
 4 Adelie  Torgersen           NA            NA                  NA          NA
 5 Adelie  Torgersen           36.7          19.3               193        3450
 6 Adelie  Torgersen           39.3          20.6               190        3650
 7 Adelie  Torgersen           38.9          17.8               181        3625
 8 Adelie  Torgersen           39.2          19.6               195        4675
 9 Adelie  Torgersen           34.1          18.1               193        3475
10 Adelie  Torgersen           42            20.2               190        4250
# ℹ 86 more rows
# ℹ 2 more variables: sex <fct>, year <int>
…
:::

Select

In some cases, we have a dataset with extraneous columns we do not care for. Let’s do a really extreme example

R
Python

penguins |>
select(island)

# A tibble: 344 × 1
   island   
   <fct>    
 1 Torgersen
 2 Torgersen
 3 Torgersen
 4 Torgersen
 5 Torgersen
 6 Torgersen
 7 Torgersen
 8 Torgersen
 9 Torgersen
10 Torgersen
# ℹ 334 more rows
…
"Dream"

"Dream"

"Dream"

OKAY! first try now we are cooking! If we wanted to do multiple columns we would do something to the effect of

R
Python

penguins |>
select(species, island)

# A tibble: 344 × 2
   species island   
   <fct>   <fct>    
 1 Adelie  Torgersen
 2 Adelie  Torgersen
 3 Adelie  Torgersen
 4 Adelie  Torgersen
 5 Adelie  Torgersen
 6 Adelie  Torgersen
 7 Adelie  Torgersen
 8 Adelie  Torgersen
 9 Adelie  Torgersen
10 Adelie  Torgersen
# ℹ 334 more rows
…
"Chinstrap"
"Dream"

Which feels more natural to me, but to some extent a dictionary would probably be more pythony. One thing I use all the time is using tidyselectors like starts_with

Using Selectors

R
Python

penguins |>
select(starts_with("bill"))

# A tibble: 344 × 2
   bill_length_mm bill_depth_mm
            <dbl>         <dbl>
 1           39.1          18.7
 2           39.5          17.4
 3           40.3          18  
 4           NA            NA  
 5           36.7          19.3
 6           39.3          20.6
 7           38.9          17.8
 8           39.2          19.6
 9           34.1          18.1
10           42            20.2
# ℹ 334 more rows
…
This is actually so cool that in this case it works exactly like the tidyverse selector functions!

Renaming Columns

I am a simple man I like snake_case but lets say I am more camel case inclined. I may want to rename columns that I am using as to not deal with object not found messages because I am used to typing billLengthMm. In the tidyverse we would do

R
Python

penguins |>
rename(BillLengthMm = bill_length_mm,
       BillDepthMm = bill_depth_mm)

# A tibble: 344 × 8
   species island   BillLengthMm BillDepthMm flipper_length_mm body_mass_g sex  
   <fct>   <fct>           <dbl>       <dbl>             <int>       <int> <fct>
 1 Adelie  Torgers…         39.1        18.7               181        3750 male 
 2 Adelie  Torgers…         39.5        17.4               186        3800 fema…
 3 Adelie  Torgers…         40.3        18                 195        3250 fema…
 4 Adelie  Torgers…         NA          NA                  NA          NA <NA> 
 5 Adelie  Torgers…         36.7        19.3               193        3450 fema…
 6 Adelie  Torgers…         39.3        20.6               190        3650 male 
 7 Adelie  Torgers…         38.9        17.8               181        3625 fema…
 8 Adelie  Torgers…         39.2        19.6               195        4675 male 
 9 Adelie  Torgers…         34.1        18.1               193        3475 <NA> 
10 Adelie  Torgers…         42          20.2               190        4250 <NA> 
# ℹ 334 more rows
# ℹ 1 more variable: year <int>
…
In tidyr we would just do this

relig |>
pivot_longer(-religion,
              names_to = "income_bracket",
              values_to = "count")

# A tibble: 180 × 3
   religion income_bracket     count
   <chr>    <chr>              <dbl>
 1 Agnostic <$10k                 27
 2 Agnostic $10-20k               34
 3 Agnostic $20-30k               60
 4 Agnostic $30-40k               81
 5 Agnostic $40-50k               76
 6 Agnostic $50-75k              137
 7 Agnostic $75-100k             122
 8 Agnostic $100-150k            109
 9 Agnostic >150k                 84
10 Agnostic Don't know/refused    96
# ℹ 170 more rows
…
 billboards |>
pivot_longer(cols = starts_with("wk"),
              names_to = "week",
              values_to = "count_of_weeks")

# A tibble: 24,092 × 5
   artist track                   date.entered week  count_of_weeks
   <chr>  <chr>                   <date>       <chr>          <dbl>
 1 2 Pac  Baby Don't Cry (Keep... 2000-02-26   wk1               87
 2 2 Pac  Baby Don't Cry (Keep... 2000-02-26   wk2               82
 3 2 Pac  Baby Don't Cry (Keep... 2000-02-26   wk3               72
 4 2 Pac  Baby Don't Cry (Keep... 2000-02-26   wk4               77
 5 2 Pac  Baby Don't Cry (Keep... 2000-02-26   wk5               87
 6 2 Pac  Baby Don't Cry (Keep... 2000-02-26   wk6               94
 7 2 Pac  Baby Don't Cry (Keep... 2000-02-26   wk7               99
 8 2 Pac  Baby Don't Cry (Keep... 2000-02-26   wk8               NA
 9 2 Pac  Baby Don't Cry (Keep... 2000-02-26   wk9               NA
10 2 Pac  Baby Don't Cry (Keep... 2000-02-26   wk10              NA
# ℹ 24,082 more rows
…
Luckily the syntax is broadly the same!

Batch renaming

Often times if we download data from the internet the column names are a mess and we want to rename them all at once. The janitor package in R is extra handy

Lets say we wanted to mass produce a camel case across the entire dataframe. In R that is a fairly simple task. Is it the case for python?

R
Python

penguins |>
janitor::clean_names(case = "lower_camel")

# A tibble: 344 × 8
   species island billLengthMm billDepthMm flipperLengthMm bodyMassG sex    year
   <fct>   <fct>         <dbl>       <dbl>           <int>     <int> <fct> <int>
 1 Adelie  Torge…         39.1        18.7             181      3750 male   2007
 2 Adelie  Torge…         39.5        17.4             186      3800 fema…  2007
 3 Adelie  Torge…         40.3        18               195      3250 fema…  2007
 4 Adelie  Torge…         NA          NA                NA        NA <NA>   2007
 5 Adelie  Torge…         36.7        19.3             193      3450 fema…  2007
 6 Adelie  Torge…         39.3        20.6             190      3650 male   2007
 7 Adelie  Torge…         38.9        17.8             181      3625 fema…  2007
 8 Adelie  Torge…         39.2        19.6             195      4675 male   2007
 9 Adelie  Torge…         34.1        18.1             193      3475 <NA>   2007
10 Adelie  Torge…         42          20.2             190      4250 <NA>   2007
# ℹ 334 more rows
…
[344 rows x 8 columns]

In my head it looks like this. Where we are effectively chaining clean names to the dataframe. From the documentation it looks like this

R
Python

penguins |>
janitor::clean_names(case = "small_camel")

# A tibble: 344 × 8
   species island billLengthMm billDepthMm flipperLengthMm bodyMassG sex    year
   <fct>   <fct>         <dbl>       <dbl>           <int>     <int> <fct> <int>
 1 Adelie  Torge…         39.1        18.7             181      3750 male   2007
 2 Adelie  Torge…         39.5        17.4             186      3800 fema…  2007
 3 Adelie  Torge…         40.3        18               195      3250 fema…  2007
 4 Adelie  Torge…         NA          NA                NA        NA <NA>   2007
 5 Adelie  Torge…         36.7        19.3             193      3450 fema…  2007
 6 Adelie  Torge…         39.3        20.6             190      3650 male   2007
 7 Adelie  Torge…         38.9        17.8             181      3625 fema…  2007
 8 Adelie  Torge…         39.2        19.6             195      4675 male   2007
 9 Adelie  Torge…         34.1        18.1             193      3475 <NA>   2007
10 Adelie  Torge…         42          20.2             190      4250 <NA>   2007
# ℹ 334 more rows
…
